[gd_scene load_steps=2 format=2]

[ext_resource path="res://SpaceResource/SpaceResource.gd" type="Script" id=1]

[node name="SpaceResource" type="Node"]
script = ExtResource( 1 )

[node name="O2" type="Node" parent="."]
script = ExtResource( 1 )
resource_name = "O2"
cost = 10.0

[node name="Material" type="Node" parent="."]
script = ExtResource( 1 )
resource_name = "Material"
cost = 20.0

[node name="Fuel" type="Node" parent="."]
script = ExtResource( 1 )
resource_name = "Fuel"
cost = 5.0

