[gd_scene load_steps=5 format=2]

[ext_resource path="res://Player/Player.gd" type="Script" id=1]
[ext_resource path="res://PlayerSpaceship/PlayerSpaceship.tscn" type="PackedScene" id=2]
[ext_resource path="res://Player/Money.gd" type="Script" id=3]
[ext_resource path="res://Player/Inventory.gd" type="Script" id=4]

[node name="Player" type="Node" groups=[
"Saved",
]]
script = ExtResource( 1 )

[node name="PlayerSpaceship" parent="." instance=ExtResource( 2 )]

[node name="Money" type="Node" parent="."]
script = ExtResource( 3 )

[node name="Inventory" type="Node" parent="."]
script = ExtResource( 4 )

