; Engine configuration file.
; It's best edited using the editor UI and not directly,
; since the parameters that go here are not all obvious.
;
; Format:
;   [section] ; section goes between []
;   param=value ; assign values to parameters

config_version=4

_global_script_classes=[ {
"base": "Node",
"class": "Inventory",
"language": "GDScript",
"path": "res://Player/Inventory.gd"
}, {
"base": "Node",
"class": "Money",
"language": "GDScript",
"path": "res://Player/Money.gd"
}, {
"base": "Node2D",
"class": "Planet",
"language": "GDScript",
"path": "res://Planet/Planet.gd"
}, {
"base": "Node",
"class": "Player",
"language": "GDScript",
"path": "res://Player/Player.gd"
}, {
"base": "Node",
"class": "PlayerSpaceship",
"language": "GDScript",
"path": "res://PlayerSpaceship/PlayerSpaceship.gd"
}, {
"base": "Node",
"class": "Sector",
"language": "GDScript",
"path": "res://Sector/Sector.gd"
}, {
"base": "Node",
"class": "SpaceResource",
"language": "GDScript",
"path": "res://SpaceResource/SpaceResource.gd"
}, {
"base": "KinematicBody2D",
"class": "Spaceship",
"language": "GDScript",
"path": "res://Spaceship/Spaceship.gd"
}, {
"base": "Node2D",
"class": "Universe",
"language": "GDScript",
"path": "res://Universe/Universe.gd"
} ]
_global_script_class_icons={
"Inventory": "",
"Money": "",
"Planet": "",
"Player": "",
"PlayerSpaceship": "",
"Sector": "",
"SpaceResource": "",
"Spaceship": "",
"Universe": ""
}

[application]

config/name="SpaceTrader"
run/main_scene="res://Menu/Menu.tscn"
config/icon="res://icon.png"

[autoload]

SaveManager="*res://SaveManager/SaveManager.gd"
LoadManager="*res://LoadManager/LoadManager.gd"
NameGeneratorManager="*res://NameGeneratorManager/NameGeneratorManager.gd"

[input]

player_left={
"deadzone": 0.5,
"events": [ Object(InputEventKey,"resource_local_to_scene":false,"resource_name":"","device":0,"alt":false,"shift":false,"control":false,"meta":false,"command":false,"pressed":false,"scancode":81,"unicode":0,"echo":false,"script":null)
, Object(InputEventKey,"resource_local_to_scene":false,"resource_name":"","device":0,"alt":false,"shift":false,"control":false,"meta":false,"command":false,"pressed":false,"scancode":65,"unicode":0,"echo":false,"script":null)
 ]
}
player_right={
"deadzone": 0.5,
"events": [ Object(InputEventKey,"resource_local_to_scene":false,"resource_name":"","device":0,"alt":false,"shift":false,"control":false,"meta":false,"command":false,"pressed":false,"scancode":68,"unicode":0,"echo":false,"script":null)
 ]
}
player_speed={
"deadzone": 0.5,
"events": [ Object(InputEventKey,"resource_local_to_scene":false,"resource_name":"","device":0,"alt":false,"shift":false,"control":false,"meta":false,"command":false,"pressed":false,"scancode":90,"unicode":0,"echo":false,"script":null)
, Object(InputEventKey,"resource_local_to_scene":false,"resource_name":"","device":0,"alt":false,"shift":false,"control":false,"meta":false,"command":false,"pressed":false,"scancode":87,"unicode":0,"echo":false,"script":null)
 ]
}
inventory={
"deadzone": 0.5,
"events": [ Object(InputEventKey,"resource_local_to_scene":false,"resource_name":"","device":0,"alt":false,"shift":false,"control":false,"meta":false,"command":false,"pressed":false,"scancode":73,"unicode":0,"echo":false,"script":null)
 ]
}
orbit={
"deadzone": 0.5,
"events": [ Object(InputEventKey,"resource_local_to_scene":false,"resource_name":"","device":0,"alt":false,"shift":false,"control":false,"meta":false,"command":false,"pressed":false,"scancode":79,"unicode":0,"echo":false,"script":null)
 ]
}
scan={
"deadzone": 0.5,
"events": [ Object(InputEventKey,"resource_local_to_scene":false,"resource_name":"","device":0,"alt":false,"shift":false,"control":false,"meta":false,"command":false,"pressed":false,"scancode":83,"unicode":0,"echo":false,"script":null)
 ]
}
planet={
"deadzone": 0.5,
"events": [ Object(InputEventKey,"resource_local_to_scene":false,"resource_name":"","device":0,"alt":false,"shift":false,"control":false,"meta":false,"command":false,"pressed":false,"scancode":80,"unicode":0,"echo":false,"script":null)
 ]
}
reload_fuel={
"deadzone": 0.5,
"events": [ Object(InputEventKey,"resource_local_to_scene":false,"resource_name":"","device":0,"alt":false,"shift":false,"control":false,"meta":false,"command":false,"pressed":false,"scancode":82,"unicode":0,"echo":false,"script":null)
 ]
}
pause={
"deadzone": 0.5,
"events": [ Object(InputEventKey,"resource_local_to_scene":false,"resource_name":"","device":0,"alt":false,"shift":false,"control":false,"meta":false,"command":false,"pressed":false,"scancode":16777217,"unicode":0,"echo":false,"script":null)
 ]
}

[locale]

locale_filter=[ 0, [ "en" ] ]

[rendering]

environment/default_clear_color=Color( 0, 0, 0, 1 )
environment/default_environment="res://default_env.tres"
